<svg width="31" height="32" viewBox="0 0 31 32" fill="none" xmlns="http://www.w3.org/2000/svg">
<path fill-rule="evenodd" clip-rule="evenodd" d="M12.1695 13.0391L16.1961 14.8518L12.1642 14.2888L12.1695 13.0391ZM16.1907 17.9481L12.1642 19.7608V18.511L16.1907 17.9481ZM11.0972 11.3333L11.0919 15.274L19.1342 16.3999L11.0919 17.5258L11.0972 21.4666L22.3511 16.3999L11.0972 11.3333Z" fill="#6951AE"/>
<path d="M15.3968 30.9111C23.1012 30.9111 29.2646 24.3678 29.2646 16.4C29.2646 8.4323 23.1012 1.88892 15.3968 1.88892C7.69249 1.88892 1.52911 8.4323 1.52911 16.4C1.52911 24.3678 7.69249 30.9111 15.3968 30.9111Z" stroke="#6951AE" stroke-width="2"/>
</svg>
